topology: 24 24 24 24 11 11
[0,0] -0.578618 0.876897 0.930545 -0.0735545 0.12524 -0.370376 0.636995 1.30403 -0.201547 -0.193299 0.994829 2.57315 -0.932478 0.703394 0.192253 -1.18197 0.651759 -0.530605 -1.33282 0.429879 -1.01153 -0.315973 -1.00573 0.818939
[0,1] -1.30277 -0.802671 0.517611 -1.04314 -0.10944 1.03291 -0.344136 0.260553 0.337485 1.28161 1.5754 -1.28423 0.145173 1.09371 -0.293446 0.145857 -0.051503 -0.623762 -0.182372 -0.586052 0.70427 1.23863 0.727437 -0.141087
[0,2] -0.834178 1.20466 1.32597 0.0628249 -0.0693093 0.709563 -0.296933 1.74791 -0.329307 0.572181 0.651535 1.85196 -1.04419 0.935574 0.184521 -0.893201 -0.248409 -0.823297 -0.0061927 1.08792 -0.379619 0.172859 0.167521 1.07427
[0,3] -1.06955 -0.97413 1.32634 -1.91968 -0.20125 0.266238 -0.757283 1.0561 0.599733 1.03501 -0.145423 -0.788746 0.123321 2.03788 0.314487 0.340244 -0.133732 -0.78922 -0.0984167 -0.434232 -0.321575 1.18398 1.12547 0.109885
[0,4] 0.686706 0.352858 0.379379 0.735319 -0.247048 0.897812 0.720696 0.28172 0.368618 -0.911752 0.0157517 0.589172 -0.0050994 0.342647 -0.108721 -1.31392 -0.895748 -1.71157 0.248914 0.324052 -0.611987 0.51384 0.0368479 0.415765
[0,5] -0.230953 -0.762252 1.46353 -1.25043 0.598719 -0.0711533 -0.161655 1.32472 0.970068 0.223428 0.467756 -0.272652 0.180238 1.07184 -0.62082 0.609479 -1.03309 0.394438 1.14802 -0.886382 -0.308001 0.0247604 1.16788 -0.425835
[0,6] -0.23198 0.560786 0.234261 0.546795 -0.999108 1.07605 -1.0202 -0.163128 0.188771 0.68248 -0.147221 0.429556 -1.1602 0.0596127 -0.611875 -0.0710462 0.627548 -0.853726 0.161456 1.21237 -0.281543 -1.3533 0.474316 1.13189
[0,7] 0.0477521 -0.993484 0.791163 0.257432 0.284864 1.26535 -0.347896 0.13558 0.821357 -0.834606 -0.558729 -0.454578 -0.0507738 0.577438 -0.447557 0.565147 -0.509878 -0.473275 0.67902 -0.729601 -0.151348 1.22212 1.13937 0.0914837
[0,8] 0.124941 -0.247069 0.689505 1.0488 -1.07091 1.05232 -0.8132 0.122573 0.843006 0.254229 -0.117511 0.0545337 -1.53987 0.745291 -0.293577 -0.0749543 0.774149 -0.323331 -1.76908 0.84678 -0.702769 0.305207 -0.0389028 -0.173714
[0,9] 0.207741 0.685806 0.868695 0.240441 0.345963 -0.239884 -0.122948 0.587744 0.0344743 -0.822553 -1.2895 -0.633225 -0.747414 0.244476 -1.23685 -0.110118 0.126926 -0.787544 0.609964 -0.0494962 0.0866597 1.2824 0.46282 -0.184385
[0,10] 0.149576 -0.195471 0.094018 -0.127665 -0.124749 1.17507 -1.68537 -1.26716 0.320367 0.739575 1.14198 0.136008 0.128253 0.568839 0.343707 -0.120714 0.197252 -0.658146 -1.30529 0.00129521 -0.524704 -1.21711 -0.918765 0.621277
[0,11] 0.731691 -0.475491 0.225116 -0.0831316 0.131524 0.174333 -0.687094 0.0601501 -0.172353 -0.213263 -0.506473 -0.416585 -0.416601 0.659005 -0.732267 -0.245361 0.919966 -0.712171 0.0832458 -0.785335 0.656816 0.100839 0.473336 -0.537094
[0,12] -0.470712 -0.677201 0.530325 -0.131384 0.552704 1.1196 -0.834613 -0.123991 0.371719 0.144798 0.599042 0.962894 0.121085 0.436751 0.380614 0.0720693 0.123574 0.282528 -0.185923 0.889061 -0.781314 0.13546 -0.425363 -0.250924
[0,13] 0.409769 0.0359021 -0.47795 -0.784434 1.11906 0.233814 -0.46647 0.719289 0.071934 -0.925253 -0.830772 -0.797697 -0.635913 -0.528579 0.150715 -0.241017 0.238107 -0.335139 0.496187 -0.0956334 1.23219 -0.0736024 -0.440704 -0.832114
[0,14] 0.26459 0.284554 -0.341391 0.37675 -0.402172 0.487852 0.170467 1.7491 0.651194 0.341477 0.342321 1.10884 0.464533 0.652125 0.705427 -0.606321 0.581284 -0.565813 -0.0148173 1.9668 0.463282 -0.510606 -0.103767 -0.0855931
[0,15] 0.385985 0.543304 -0.750237 0.415858 -0.000306158 -0.320698 -0.357875 0.245794 0.246594 -0.816589 0.0529546 -0.183035 -0.681127 -1.09334 0.992071 -0.354586 0.860665 0.101617 -0.33172 -0.335558 1.00637 -0.645561 -0.691336 -0.948477
[0,16] 0.257275 -0.0380403 -0.123835 0.947328 -0.259565 -1.14448 0.0659212 0.875437 0.203664 0.949489 0.988294 1.3415 -0.0869375 -0.773237 0.28041 0.112732 0.151383 0.0911123 -0.307217 1.79544 0.276768 -0.452436 0.0980777 -0.660348
[0,17] 0.411331 -0.427247 -0.517351 0.0585428 0.266081 0.111021 -0.26642 0.310749 0.064202 -1.4094 0.489375 -0.842611 -0.0680159 0.365894 0.544429 -0.111771 0.95273 -0.600688 -0.152866 -0.180284 1.48232 -0.822994 0.451009 -2.05699
[0,18] 0.169479 -0.067682 -1.34543 -0.35861 -1.30094 -1.56804 -0.351137 1.43808 -0.25417 -0.958807 0.909602 0.616745 -0.676723 -0.925751 -0.681403 -0.652384 0.870763 0.558626 -1.42067 1.70311 -0.318685 -1.1054 0.153763 -0.122863
[0,19] -0.40416 0.0566365 0.14789 0.155607 -0.0736282 -0.0994168 -0.777557 -0.596272 -0.471333 -0.675415 -0.382771 -1.11234 -0.868074 -0.422572 0.683393 -1.41302 0.888851 -0.0859559 -0.425639 -0.623514 1.54973 -0.193934 0.627882 -1.09231
[0,20] -0.584746 -0.0593963 -0.0839149 0.328306 -0.541805 -0.937157 0.0275137 0.442725 0.45345 -0.84758 0.34982 0.18283 -0.198234 -0.460888 0.250084 -0.164447 0.481108 -0.0106301 -0.620103 1.00148 0.244331 -0.245696 -0.201013 -0.28126
[0,21] 0.13635 0.757 0.0599203 -0.587462 -0.579737 -0.106181 -0.613979 0.677668 0.144423 0.455939 0.0264641 -0.484452 -0.608057 0.591039 0.305169 0.594137 0.954078 0.084872 0.236997 -0.0462559 0.886553 -0.532014 -0.145103 -1.74424
[0,22] -0.117032 0.160958 -0.0712348 0.31242 -0.000491888 0.270866 -0.101523 0.756336 0.00588563 -0.431475 0.895822 0.250738 -0.360271 -0.600028 0.442168 0.241355 0.218604 -0.0435251 -0.145249 0.534032 -0.126818 -1.1929 0.0410333 -0.15462
[0,23] 0.0136009 -0.168114 0.0234468 -0.186058 0.706763 -0.322342 0.252859 0.509904 -0.79097 0.0540332 0.0376993 -0.0766682 0.187653 -0.183774 0.114856 -0.0429863 0.246528 -0.128808 0.380994 -0.215762 -0.323278 -0.127771 0.163597 0.0603651
[0,24] 1.12686 -0.380599 -0.518827 -0.874082 -0.443175 -0.754078 -1.11388 0.458235 0.565034 0.565828 -0.969818 -0.000379277 0.818947 -0.128091 -1.11487 1.92047 0.540286 -0.446798 -0.560268 -0.126991 0.0414699 -0.307878 1.83989 -0.134698
[1,0] -0.942831 0.0320593 0.672947 -0.548035 0.0755903 -0.247093 0.0357782 0.662597 0.373715 0.578385 0.434794 0.406734 0.00645545 0.438365 0.11354 -0.398339 -0.0695691 -0.022996 -0.0288048 -0.340076 -0.239707 0.0382806 0.161253 -0.220451
[1,1] -0.721675 -0.445724 -0.856408 -0.149441 1.17356 -0.250017 0.220855 -0.486874 -0.574274 -0.70377 -0.449962 -0.020403 -0.133099 1.0524 0.0441294 0.441261 0.452597 0.0947062 -0.393861 -0.818234 0.00560533 0.434521 -1.28567 0.31951
[1,2] 0.270141 1.59762 0.845743 0.417046 1.62836 -0.523774 -0.242002 0.685974 0.167481 0.27666 -0.272942 0.725365 -0.61368 -0.465082 0.35809 0.621585 -0.822599 -0.861964 -0.218807 -0.11357 0.206029 0.821327 0.315392 0.056397
[1,3] -0.436239 -1.06251 0.438274 -1.23439 -0.296895 -0.235573 0.267266 0.212223 -0.555329 -0.430254 0.566855 -0.838847 0.0274145 0.0404323 0.0747472 -0.227958 0.363059 0.284595 0.883628 -1.24382 -1.48591 -0.575993 0.534948 0.150782
[1,4] 0.0227057 -0.546305 -0.0724262 0.321495 0.32259 0.517691 0.141503 0.238669 -0.201735 -0.254242 0.714104 0.486808 -0.445825 0.350631 0.23917 -0.458962 -0.801722 -0.52272 0.402463 -0.651701 -0.560075 -0.443339 -0.372707 0.0589026
[1,5] 0.357733 -0.208097 -0.0667045 -0.158653 1.49514 -0.422355 -0.94071 -0.468198 -0.412618 0.106616 -1.02277 -0.0536812 0.900777 0.145459 -0.902218 0.818969 0.768585 -0.759252 0.379512 -0.248102 -0.889859 0.626907 0.230046 -0.327319
[1,6] -0.30914 -0.688873 0.268979 -0.0789755 -0.0590378 0.880102 -0.117099 0.46024 0.57136 0.827698 0.723995 1.07433 -0.0712903 -0.50218 0.41809 0.257322 -0.723329 0.536669 -0.978415 0.343737 0.0207432 -0.272839 -1.44411 -0.367545
[1,7] -0.984778 0.7182 -0.0840202 -0.0995996 -1.58012 -0.427216 -0.0901416 -0.144997 0.598491 0.251515 0.669753 -0.234606 0.166891 0.55375 1.7187 -1.04809 0.0277665 0.00361109 -0.20327 -0.481558 -0.457806 -1.12324 0.245537 0.145999
[1,8] -0.120312 0.428238 -0.190552 -0.153421 0.294526 -0.300202 0.143244 0.69454 1.37733 0.482578 -0.0195267 0.589078 -0.118618 0.105538 0.283222 -0.0284984 0.0781727 -0.360376 -0.964871 -0.0474156 0.357355 0.137806 -0.119045 -0.446059
[1,9] 0.025319 0.24712 -0.774386 0.14795 0.264507 0.955618 -0.0150648 -1.23728 -0.0998118 -0.384449 -0.70186 -0.45932 -1.29173 0.289036 0.989299 0.338104 -0.0465625 -0.872924 0.135289 -0.810111 0.222116 -0.16357 0.623062 0.678294
[1,10] -0.353157 0.303303 0.0746436 0.306693 -0.608893 0.306628 -0.394051 -0.307506 -0.447735 0.0251353 -0.495829 -0.185614 -0.213479 0.257131 0.674063 -0.470438 0.687352 -0.409339 -0.242025 -0.0402868 0.139594 -0.391691 0.532997 0.143846
[1,11] -0.0981967 0.436559 0.128213 -0.456737 -0.686718 -0.324518 0.00196736 -0.516403 -1.09882 -0.870179 2.17623 -0.0179071 -0.371645 -0.554761 0.206166 0.337179 0.765266 0.18654 0.940162 -0.350797 -0.309453 0.629073 -0.859315 -1.84626
[1,12] 0.37091 1.19864 -1.35321 0.189214 -0.453948 0.77611 0.179654 -0.0764472 0.131229 0.407396 -0.502751 -0.255629 -1.0852 -0.23229 -0.698498 0.204379 0.238404 -0.0356068 0.300106 -0.458965 0.169959 -0.346108 0.0702556 0.0176372
[1,13] 0.660456 0.286669 0.218241 0.623655 0.920133 -0.458155 -1.18866 -0.310573 0.0127491 0.208708 -0.104712 0.72665 0.88511 -0.597646 -0.1486 0.963484 -0.467128 -0.991654 -0.607336 0.476176 -0.027492 1.375 -0.282099 0.762792
[1,14] 0.0389568 0.941326 -0.700675 0.485893 0.636148 0.301054 0.232025 -0.392645 -0.0058126 -0.138693 -1.13582 0.639263 0.30292 0.223308 -0.274631 0.596831 -0.134812 -0.66616 0.0947301 -0.447274 -0.220354 0.564108 -0.310476 0.0506013
[1,15] -0.0943854 -0.650577 -0.908924 -0.317242 -1.20915 0.694881 -0.289727 -0.162107 0.569683 0.396806 0.603942 0.302223 -0.610713 -0.337473 1.14641 -0.279621 0.273123 -0.418034 0.0936601 0.827234 0.546784 -0.713274 -0.16331 0.279284
[1,16] -0.537122 -0.0321048 -0.184931 -0.102363 -0.619944 0.962161 0.486417 -0.956642 0.324584 -1.08075 0.0543057 -0.563636 0.118472 0.184082 1.26972 -0.53212 0.585378 0.169559 0.0447184 0.0226614 -0.0122029 -0.864348 0.58185 0.386121
[1,17] -0.0351841 0.387671 -0.291602 0.473337 -0.630866 0.381916 0.905665 0.341255 0.808688 -0.21532 -0.615104 0.795834 -1.05424 0.617953 0.193913 -0.610498 -0.563902 -0.275682 -1.04889 -0.00671311 0.919302 -0.570209 -0.451656 0.521365
[1,18] 0.862653 -0.72953 -0.260108 0.301611 0.390981 0.317846 -0.528937 0.373035 0.95633 0.516017 -0.270094 1.16921 -0.556418 -0.336946 -0.764678 -0.351701 -0.586174 0.177333 -1.20691 0.257277 -0.483892 -0.369953 -0.588825 0.0211697
[1,19] 1.17484 -0.401292 -0.00367795 0.338833 -0.528792 -0.119017 -0.276095 -0.207365 -0.124055 0.55159 0.115799 -0.676705 -0.764514 0.164811 0.395793 -0.221838 0.163806 -0.753477 0.67019 -0.0248049 0.424618 -0.0819785 -0.526634 -0.73331
[1,20] -0.342544 -0.171817 0.355453 0.145753 0.771622 0.532206 0.636023 -0.629268 0.262419 0.66945 -0.382454 -0.510187 0.404642 0.817271 -0.784574 -0.384563 1.06703 -0.209554 -0.411314 0.0410135 -0.974793 -0.502103 -0.164961 0.902268
[1,21] 0.322294 0.897377 0.546984 0.768126 -0.573129 -0.252334 0.272737 0.709481 -0.534287 0.0337251 -0.435701 0.446251 -1.1678 -0.750919 -0.853868 -0.327938 -0.836457 0.106298 -0.168225 0.379233 -0.210608 0.818677 -1.09162 0.119967
[1,22] 0.0122203 0.320785 1.33674 -0.288237 0.32116 -1.15045 -0.838269 0.279239 0.269703 1.05873 0.386087 -0.0016606 -0.654397 0.0669552 0.600614 0.0208607 0.0675814 -0.721465 -0.207783 0.501678 0.307092 0.580547 0.00230251 0.181768
[1,23] 0.908627 0.120272 0.254554 0.032918 -0.128896 0.109945 -0.0105581 -0.649498 -0.807846 -0.726356 -0.25026 0.191258 -0.074668 0.38707 -0.471231 0.725047 0.553079 -0.160321 1.02053 -0.497567 -0.630198 -0.338716 -0.411178 -0.388735
[1,24] -1.64852 0.268743 2.07206 0.838767 -0.39671 -1.36579 0.70912 -0.0517564 0.310724 0.929441 1.39191 -0.765118 0.0383231 0.0796269 0.948691 1.1696 0.428031 -0.0665951 -1.1405 0.706575 0.0326813 0.678691 0.266711 0.336973
[2,0] -0.36861 0.0390935 -0.154416 0.118278 -0.487435 0.158471 -0.394744 -0.475071 0.349861 0.189016 -0.578247 -0.32464 -0.276532 -0.0285389 0.244369 -0.370291 -0.182022 0.0403992 0.130976 -0.128207 0.730961 0.489483 -0.109514 -0.293186
[2,1] 0.421498 -0.41457 0.120522 -0.865748 -1.49039 -0.00357992 0.236378 0.191349 -0.355685 0.0118954 0.592318 1.28859 1.44653 0.169817 0.0672968 0.400095 -0.302255 0.0302561 -0.135371 -1.04593 0.48753 0.577408 -0.198415 -0.302987
[2,2] -0.626412 -0.0194137 -0.10034 0.0176895 0.307822 -0.0373313 -0.00321391 -0.0754953 -0.461182 -0.0409911 0.394219 0.155609 0.492564 -0.0989927 0.119277 -0.664332 -0.00317329 -0.0410988 0.0717515 -1.73619 -0.65208 -1.1486 0.0466554 0.0130788
[2,3] -0.851014 0.350317 0.193115 0.395735 0.0794876 0.139784 -0.236848 -0.184787 -0.391466 0.276795 -0.525722 0.0334286 0.6305 0.116169 -0.201669 -0.133743 0.172967 0.092097 0.170872 0.0390925 -0.448158 -0.957975 -0.0670105 -0.121204
[2,4] 0.9681 -0.0797995 0.0688965 -0.881376 0.264821 -0.0279815 -0.949597 -0.397756 -0.105989 0.103836 0.107321 -1.54489 0.113822 0.145563 0.163342 -0.471491 -0.109922 0.0374708 0.0356381 0.739166 -0.479096 -0.570559 -0.107886 -0.348887
[2,5] 0.260233 -0.0704796 0.0162274 0.919711 0.305482 0.0283185 -1.21275 -0.345204 -0.288935 -0.0629949 -0.0220181 -0.00670851 -1.13349 -0.251854 -0.138723 -0.552616 -0.0650669 -0.0342375 0.099352 -0.405352 -1.24095 -0.0517942 0.214855 0.311175
[2,6] 0.7271 0.221516 -0.305276 -0.148644 0.430899 -0.00945571 0.392171 0.125268 -0.822788 0.150532 -0.969207 0.650755 -0.00789679 -0.0408837 0.7456 -0.127713 0.204053 -0.0769676 0.277561 -1.1715 0.792458 0.227294 -0.0372805 -0.0740653
[2,7] -0.455517 0.358762 0.201789 -0.199251 -0.939696 0.00169692 -0.420679 -0.155112 0.434428 -0.061917 0.615802 0.455014 0.343484 -0.0925069 -0.425971 0.157304 0.22535 -0.00107877 0.00942439 0.380964 -0.116356 0.158886 0.208011 0.248133
[2,8] -0.599567 -0.147259 -0.465646 0.3109 0.366689 0.10427 0.0784252 -0.174995 -0.951548 0.121979 -0.412209 -0.484281 -0.378084 -0.0804933 0.731475 -0.41492 -0.284829 -0.0697635 0.0498451 -0.414285 0.929347 -0.252876 -0.108971 -0.334429
[2,9] 1.10424 -0.42961 -1.66266 -1.58299 0.0478088 -0.031711 -0.791125 -0.097618 -0.615695 0.145977 0.618467 -0.0713679 -0.355547 0.431914 -0.284103 0.377006 -0.117961 0.385975 -0.131694 -0.0540554 0.206927 -0.528797 0.080444 0.00163945
[2,10] 0.940154 -0.0509957 -0.0874254 0.330233 -0.567361 0.133236 -0.0531075 -0.0145727 1.0778 0.25086 -0.726987 -0.458536 0.292669 0.146437 0.193308 -0.147712 -0.0976495 0.0851374 0.133512 0.120938 -0.466551 0.528842 -0.269342 -0.327064
[2,11] 0.367425 -0.172873 -0.0158876 0.851203 0.580961 -0.0332762 -0.331255 0.751625 -0.227398 -0.065482 0.0550774 -0.556057 0.501295 0.213407 0.0174573 1.05736 0.0101657 0.043901 -0.187118 -0.517423 0.109756 0.515598 -0.166199 0.00169576
[2,12] 0.44896 0.14787 -0.215108 0.207945 -0.371424 0.045654 1.28078 -0.208117 0.00610423 0.173832 -0.509916 0.156065 -0.579702 -0.0880585 0.185338 0.139123 0.121011 -0.0469643 0.217669 -0.609965 0.753804 0.582919 0.161292 0.195575
[2,13] -0.203918 -0.048669 0.288225 -0.309559 -0.442921 -0.0410082 -0.0928367 -0.160222 0.143679 0.0911206 -0.208752 0.133643 -0.0585693 0.0775529 0.0173747 -0.316999 -0.0128354 -0.0184506 -0.0276981 -0.0849358 0.229253 0.192276 0.126428 -0.0501021
[2,14] -0.658467 0.0170048 0.015276 0.702998 0.197577 -0.0142616 0.298068 -0.0342323 -0.455474 0.000212869 -1.22103 -1.36988 0.805899 -0.0771101 0.309811 0.823694 0.0204073 -0.0403793 0.0911802 0.481084 -0.456653 -0.976402 0.0182602 -0.0164207
[2,15] -0.351408 0.0409212 -0.152256 0.960233 -0.293905 0.105831 0.0126453 0.243182 0.311017 0.189733 -0.0650163 0.0498336 0.584138 -0.157556 0.697927 0.0460157 0.112258 -0.0481992 0.361411 0.170153 -0.229363 -0.684384 -0.0773807 0.0882544
[2,16] -0.130857 0.0894123 -0.030883 -0.296585 -0.905818 0.118175 -0.554966 0.489392 0.92404 -0.182469 0.181179 -0.879733 0.399328 0.212416 -0.732586 -0.0297362 -0.0815466 0.183032 -0.3482 -0.125398 -0.230585 -0.612557 -0.337069 -0.191053
[2,17] -0.822184 -0.567784 0.332066 0.152828 0.49624 0.0282269 0.024989 0.10864 0.0258966 -0.0977858 0.196013 -0.635355 0.291606 0.158069 -0.217927 -0.165574 -0.443284 0.0906423 -0.291427 0.544715 -0.631664 -0.525499 -0.192128 -0.246905
[2,18] 0.750539 0.0108994 -0.354218 -0.404931 0.86738 -0.0710808 -1.49614 -0.177507 -0.253696 0.126137 0.451617 0.388177 -0.115533 -0.109068 1.11495 1.27892 -0.0565153 -0.226284 0.0764687 -0.034088 0.381205 -1.4315 0.216893 -0.167954
[2,19] 0.122343 0.0639042 -0.358479 0.282731 -0.178975 -0.15886 -0.245791 0.0580866 0.467922 -0.257081 -0.0640434 0.824068 -0.483801 -0.542362 -1.24045 0.155389 0.018879 -0.547643 0.125838 0.137754 0.242536 0.885566 0.129777 0.101058
[2,20] -0.243258 0.0480955 -0.0322344 0.273803 0.00914938 -0.104827 0.0103169 -0.0182632 0.0143543 0.0633039 -0.163627 0.198567 -0.0336312 0.181998 -0.239667 -0.620094 0.144218 0.0124524 -0.0356386 -0.000812993 -0.153912 0.341484 0.101731 0.0758793
[2,21] 0.636435 0.0531511 -0.0838591 0.129651 0.21097 -0.0761342 0.963295 0.179295 -0.689996 -0.29074 -1.02414 0.203241 0.277998 -0.0552634 -0.571009 -0.36143 0.0247719 -0.012143 -0.309475 -0.131897 0.293557 0.258155 0.185112 0.262076
[2,22] -0.135937 -0.0983535 0.187541 -0.29541 0.175241 0.0283579 -0.515869 0.149261 0.544047 0.0570892 -0.421227 -0.159494 -0.535438 -0.0484828 0.0126836 -0.586637 0.0684245 0.0215621 0.144805 -0.502128 0.656837 0.263723 0.0135168 0.243632
[2,23] 0.416197 0.116011 -0.305582 0.389755 -0.722438 0.119282 -0.15272 0.22166 0.213665 0.0913428 0.0797741 -0.291616 0.834472 -0.0173767 0.357086 0.0181857 -0.0474993 -0.00903736 0.0429352 0.270793 -0.63469 -0.0741582 -0.178618 -0.244454
[2,24] -0.700596 0.0565617 0.0122561 -0.833443 -0.112362 0.03603 -0.585187 -0.433638 -0.281877 -0.065139 -0.276086 -0.10495 -1.22088 -0.0928623 -0.222924 0.524097 -0.119662 -0.0115416 -0.106749 -0.741971 1.69721 0.996956 0.147568 0.0431231
[3,0] 0.00336464 -0.440073 -0.531141 -0.364797 -0.177303 0.262541 -0.744595 -0.0274573 -0.660727 -0.0334787 -0.112209
[3,1] 0.0145227 0.0151619 -0.010936 0.00216244 -0.0344978 0.0305257 -0.022157 -0.00566017 0.021493 -0.00510131 -0.0046435
[3,2] -0.195508 0.298447 -0.555576 -0.459476 -0.87283 -1.08295 0.538959 0.0481861 0.541128 -0.312984 -0.785677
[3,3] 0.768265 -0.708585 -0.653624 0.325401 1.16973 -0.306569 -0.431557 0.369129 0.760163 -0.970155 0.312472
[3,4] -0.683471 1.19162 -1.55521 0.299681 -0.136234 -1.10773 0.743452 -0.00422594 -1.12369 0.855909 -0.144087
[3,5] -0.00562587 0.00539979 -0.0154199 0.00474815 -0.0138252 0.00385464 -0.000892274 0.00720466 0.00113605 -0.00561048 -0.00862655
[3,6] -0.0605902 0.334849 0.298686 0.287441 -0.650439 0.0634859 -0.321811 0.127927 -0.0946518 -0.798211 0.944104
[3,7] 0.005786 -0.00704382 -0.00131684 -0.000783141 0.0178352 0.0205834 0.008521 -0.0224362 0.00514193 0.0070118 -0.0305887
[3,8] 0.344544 0.123178 -0.138898 1.20451 0.151427 0.243869 0.0875959 0.0137463 -1.20167 -0.340237 -0.104855
[3,9] -0.00653091 0.0188589 -0.00553525 0.0147756 -0.0164301 0.011844 -0.0176908 0.00814628 0.00981431 0.000365291 -0.00370228
[3,10] -0.158645 0.472407 0.172079 0.42497 0.362017 0.285261 0.57149 0.0180391 0.464077 -0.776789 0.1071
[3,11] -0.718992 -0.743332 -0.0303138 0.395433 -0.392217 0.517584 -0.36493 0.119587 -0.226923 -0.0874499 0.806975
[3,12] -0.0232937 0.387166 -1.07126 0.501594 -0.330115 -0.378338 0.5794 -0.0401586 -0.627983 -0.176335 -1.13461
[3,13] 0.0220797 -0.00565778 0.0241508 0.00751849 -0.0041034 0.0049951 0.00885322 0.0027362 0.00914053 0.0183923 -0.0163598
[3,14] -0.41461 -1.14606 1.80609 0.924621 0.726385 1.09626 -0.981604 0.139044 0.974251 -0.249851 -0.263848
[3,15] 0.13846 -0.104566 0.400292 -0.0720533 -0.20867 -0.5653 0.147358 0.047399 0.174879 0.877524 0.0304449
[3,16] 0.0134402 0.0176788 -0.00225703 0.00866437 -0.0150834 0.0314709 -0.0197021 -0.00590036 0.0110907 0.003043 -0.0046496
[3,17] 0.00983971 -0.0043062 0.00848262 0.00656564 -0.00652151 0.00529453 0.00509168 0.00960634 -0.00159382 0.00790462 -0.0128232
[3,18] -0.0192465 0.0196219 -0.0215395 0.0154509 -0.0110202 0.0152767 -0.0285702 -0.00313366 -0.00154878 -0.0121487 0.00695922
[3,19] -0.80123 1.22113 -1.53262 0.619739 0.654452 0.477546 -0.805098 -1.38509 -0.0169547 -0.149631 0.762357
[3,20] -0.00486764 1.09113 -2.1739 1.03542 1.52964 -0.12404 -0.218798 0.36562 1.00567 0.459159 0.300302
[3,21] -0.320312 0.460322 0.0940173 0.564001 0.553215 -0.635314 -0.411398 0.0123327 -0.559015 0.325153 -1.16545
[3,22] 0.00249138 0.0179901 0.00237925 -0.0111434 -0.0069914 -0.00359496 -0.00176478 0.0171356 -0.00458786 -0.00762166 0.0204825
[3,23] 0.00949357 0.0195005 -0.00913136 -0.00703505 -0.0065658 0.00731892 0.00596503 0.0115472 -0.0145859 -0.000608983 0.00314363
[3,24] -0.866689 -0.0567524 -0.350172 0.664067 0.123617 0.524421 -0.734338 0.104931 -0.0826983 -1.51749 0.701357
[4,0] -0.144227 0.133373 -0.158103 0.125613 -0.0258687 -0.0656316 0.190806 0.158298 -0.130283 0.26866 0.324686
[4,1] -0.161172 -0.211173 -0.227325 0.168012 -0.0418477 0.232601 -0.303642 -0.156058 0.0802362 0.213627 0.344626
[4,2] 0.106904 0.275876 0.217877 -0.054362 0.00713434 0.182334 -0.184774 -0.330179 -0.186379 -0.0460126 0.326697
[4,3] -0.258658 0.113274 -0.288621 -0.257943 0.036188 0.268068 0.237941 0.116439 0.165856 -0.422179 0.163903
[4,4] 0.184505 -0.321475 0.0911482 0.00846733 -0.00586919 -0.208339 -0.0351306 0.243819 0.323986 -0.19286 0.295996
[4,5] 0.317432 0.0686373 -0.228261 -0.194945 -0.0338295 -0.340457 0.190044 -0.293776 0.104038 0.165668 0.11467
[4,6] -0.246357 -0.0538113 0.263753 -0.198609 -0.0505069 0.18523 0.289453 -0.15703 0.305459 0.222572 -0.03284
[4,7] 0.122519 0.16379 0.279519 -0.153497 -1.18051 0.234937 -0.177158 0.463555 -0.00186921 -0.188276 0.0473852
[4,8] 0.190655 0.155589 -0.27572 -0.149735 0.0237587 0.200536 -0.262802 0.237106 0.0664452 0.300058 -0.251312
[4,9] 0.358275 -0.211854 -0.257717 0.279689 0.0208284 0.154284 0.336793 -0.119461 -0.0571119 -0.226862 -0.0764672
[4,10] 0.137271 -0.422076 -0.0219466 -0.340001 0.0333011 0.130296 0.108466 0.173762 -0.407573 0.230658 0.132809
[4,11] 0.0361258 0.0665858 0.0404654 0.523845 1.03178 -0.0103497 0.291848 -0.261409 0.21715 0.20203 0.029291
